<?xml version="1.0" encoding="UTF-8" standalone="no"?>
<!-- Created with Inkscape (http://www.inkscape.org/) -->

<svg
   width="210mm"
   height="297mm"
   viewBox="0 0 210 297"
   version="1.1"
   id="svg5"
   inkscape:version="1.1.1 (3bf5ae0d25, 2021-09-20)"
   sodipodi:docname="memory.svg"
   xmlns:inkscape="http://www.inkscape.org/namespaces/inkscape"
   xmlns:sodipodi="http://sodipodi.sourceforge.net/DTD/sodipodi-0.dtd"
   xmlns="http://www.w3.org/2000/svg"
   xmlns:svg="http://www.w3.org/2000/svg">
  <sodipodi:namedview
     id="namedview7"
     pagecolor="#ffffff"
     bordercolor="#666666"
     borderopacity="1.0"
     inkscape:pageshadow="2"
     inkscape:pageopacity="0.0"
     inkscape:pagecheckerboard="0"
     inkscape:document-units="mm"
     showgrid="false"
     inkscape:zoom="0.69130191"
     inkscape:cx="-246.63609"
     inkscape:cy="527.98928"
     inkscape:window-width="1920"
     inkscape:window-height="979"
     inkscape:window-x="0"
     inkscape:window-y="0"
     inkscape:window-maximized="1"
     inkscape:current-layer="layer1" />
  <defs
     id="defs2">
    <rect
       x="-781.44561"
       y="337.19213"
       width="63.421999"
       height="102.46178"
       id="rect18937" />
    <rect
       x="-695.1275"
       y="336.36715"
       width="115.63327"
       height="85.334912"
       id="rect7489" />
    <marker
       style="overflow:visible"
       id="Arrow1Lstart"
       refX="0.0"
       refY="0.0"
       orient="auto"
       inkscape:stockid="Arrow1Lstart"
       inkscape:isstock="true">
      <path
         transform="scale(0.8) translate(12.5,0)"
         style="fill-rule:evenodd;fill:context-stroke;stroke:context-stroke;stroke-width:1.0pt"
         d="M 0.0,0.0 L 5.0,-5.0 L -12.5,0.0 L 5.0,5.0 L 0.0,0.0 z "
         id="path1054" />
    </marker>
  </defs>
  <g
     inkscape:label="Layer 1"
     inkscape:groupmode="layer"
     id="layer1">
    <rect
       style="fill:none;fill-opacity:1;stroke:#000000;stroke-width:1.97644;stroke-miterlimit:4;stroke-dasharray:none;stroke-opacity:1"
       id="rect31"
       width="339.44122"
       height="136.56953"
       x="-189.97708"
       y="48.040337"
       ry="0" />
    <rect
       style="fill:none;fill-opacity:1;stroke:#000000;stroke-width:1.97603;stroke-miterlimit:4;stroke-dasharray:none;stroke-opacity:1"
       id="rect1344"
       width="42.510159"
       height="135.89825"
       x="-189.97708"
       y="48.711609" />
    <rect
       style="fill:none;fill-opacity:1;stroke:#000000;stroke-width:1.97603;stroke-miterlimit:4;stroke-dasharray:none;stroke-opacity:1"
       id="rect1344-3"
       width="42.510159"
       height="135.89825"
       x="-147.46692"
       y="48.711609" />
    <rect
       style="fill:none;fill-opacity:1;stroke:#000000;stroke-width:1.97603;stroke-miterlimit:4;stroke-dasharray:none;stroke-opacity:1"
       id="rect1344-6"
       width="42.510159"
       height="135.89825"
       x="-104.95676"
       y="48.711609" />
    <rect
       style="fill:none;fill-opacity:1;stroke:#000000;stroke-width:1.97694;stroke-miterlimit:4;stroke-dasharray:none;stroke-opacity:1"
       id="rect1344-7"
       width="42.598221"
       height="135.74263"
       x="-62.490627"
       y="48.66758" />
    <rect
       style="fill:none;fill-opacity:1;stroke:#000000;stroke-width:1.97603;stroke-miterlimit:4;stroke-dasharray:none;stroke-opacity:1"
       id="rect1344-5"
       width="42.510159"
       height="135.89825"
       x="-19.93644"
       y="48.711609" />
    <rect
       style="fill:none;fill-opacity:1;stroke:#000000;stroke-width:1.97603;stroke-miterlimit:4;stroke-dasharray:none;stroke-opacity:1"
       id="rect1344-35"
       width="42.510159"
       height="135.89825"
       x="22.573719"
       y="48.711609" />
    <rect
       style="fill:none;fill-opacity:1;stroke:#000000;stroke-width:1.97603;stroke-miterlimit:4;stroke-dasharray:none;stroke-opacity:1"
       id="rect1344-62"
       width="42.510159"
       height="135.89825"
       x="65.083878"
       y="48.711609" />
    <rect
       style="fill:none;fill-opacity:1;stroke:#000000;stroke-width:2.07018;stroke-miterlimit:4;stroke-dasharray:none;stroke-opacity:1"
       id="rect1588"
       width="339.44122"
       height="34.14238"
       x="-189.97708"
       y="48.040337" />
    <rect
       style="fill:none;fill-opacity:1;stroke:#000000;stroke-width:2.07018;stroke-miterlimit:4;stroke-dasharray:none;stroke-opacity:1"
       id="rect1588-9"
       width="339.44122"
       height="34.14238"
       x="-189.97708"
       y="82.182716" />
    <rect
       style="fill:none;fill-opacity:1;stroke:#000000;stroke-width:2.07018;stroke-miterlimit:4;stroke-dasharray:none;stroke-opacity:1"
       id="rect1588-1"
       width="339.44122"
       height="34.14238"
       x="-189.97708"
       y="116.3251" />
    <rect
       style="fill:none;fill-opacity:1;stroke:#000000;stroke-width:2.07018;stroke-miterlimit:4;stroke-dasharray:none;stroke-opacity:1"
       id="rect1588-2"
       width="339.44122"
       height="34.14238"
       x="-189.97708"
       y="150.46748" />
    <text
       xml:space="preserve"
       transform="matrix(0.62484091,0,0,0.47835976,230.0009,-71.903622)"
       id="text7487"
       style="font-style:normal;font-weight:normal;font-size:40px;line-height:1.25;font-family:sans-serif;text-align:center;white-space:pre;shape-inside:url(#rect7489);fill:#000000;fill-opacity:1;stroke:none;stroke-width:1.00157;stroke-miterlimit:4;stroke-dasharray:none"
       x="10.078125"
       y="0"><tspan
         x="-650.03516"
         y="371.75781"
         id="tspan23150">0</tspan></text>
    <text
       xml:space="preserve"
       transform="matrix(0.26458333,0,0,0.26458333,5.5077521,3.6718347)"
       id="text18935"
       style="font-style:normal;font-weight:normal;font-size:40px;line-height:1.25;font-family:sans-serif;white-space:pre;shape-inside:url(#rect18937);fill:#000000;fill-opacity:1;stroke:none"><tspan
         x="-781.44531"
         y="372.58203"
         id="tspan23152">a</tspan></text>
    <rect
       style="fill:#ffffff;fill-opacity:1;stroke:#ffffff;stroke-width:0.264999;stroke-miterlimit:4;stroke-dasharray:none;stroke-opacity:1"
       id="rect21941"
       width="179.01241"
       height="202.93764"
       x="-19.35936"
       y="17.758163" />
  </g>
</svg>
